%YAML 1.1
%TAG !u! tag:unity3d.com,2011:
--- !u!114 &11400000
MonoBehaviour:
  m_ObjectHideFlags: 0
  m_CorrespondingSourceObject: {fileID: 0}
  m_PrefabInstance: {fileID: 0}
  m_PrefabAsset: {fileID: 0}
  m_GameObject: {fileID: 0}
  m_Enabled: 1
  m_EditorHideFlags: 0
  m_Script: {fileID: 11500000, guid: a135366a3601745449ae802f72f9b2fe, type: 3}
  m_Name: Game Data Keeper
  m_EditorClassIdentifier: 
  CurSelectedBallID: 0
  CurMapID: 0
  IsOnline: 0
  MeIsLeft: 1
  MyGridID: 0
  Map: {fileID: 0}
  IamReady: 1
  Balls:
  - {fileID: 0}
  - {fileID: 0}
  - {fileID: 0}
  - {fileID: 0}
  - {fileID: 0}
  - {fileID: 0}
  Grids:
  - {fileID: 0}
  - {fileID: 0}
